<svg width="25" height="24" viewBox="0 0 25 24" fill="none" xmlns="http://www.w3.org/2000/svg">
<path fill-rule="evenodd" clip-rule="evenodd" d="M17.5 15.59L16.09 17L12.5 13.41L8.91 17L7.5 15.59L11.09 12L7.5 8.41L8.91 7L12.5 10.59L16.09 7L17.5 8.41L13.91 12L17.5 15.59Z" fill="#0F2330"/>
</svg>
